<?xml version="1.0" encoding="UTF-8" standalone="no"?>
<!DOCTYPE svg PUBLIC "-//W3C//DTD SVG 1.1//EN" "http://www.w3.org/Graphics/SVG/1.1/DTD/svg11.dtd">
<svg width="100%" height="100%" viewBox="0 0 102 164" version="1.1" xmlns="http://www.w3.org/2000/svg" xmlns:xlink="http://www.w3.org/1999/xlink" xml:space="preserve" xmlns:serif="http://www.serif.com/" style="fill-rule:evenodd;clip-rule:evenodd;stroke-linejoin:round;stroke-miterlimit:2;">
    <g transform="matrix(1,0,0,1,-2386.03,-46.762)">
        <g transform="matrix(1,0,0,0.773438,2501.73,-511.448)">
            <g transform="matrix(1,0,0,1.29293,-785.734,635.407)">
                <circle cx="720.933" cy="169.616" r="50.907" style="fill:white;"/>
            </g>
        </g>
        <g transform="matrix(1,0,0,0.773438,2501.73,-511.448)">
            <g id="chr_hurry" transform="matrix(-0.848993,0,0,1.09769,327.384,666.516)">
                <g transform="matrix(4.16667,0,0,4.16667,-707.516,-640.965)">
                    <path d="M287.118,191.437C287.118,191.249 286.641,191.175 286.754,191.029C287.052,190.645 287.451,190.084 287.722,189.755L287.844,189.607C288.114,189.28 288.597,189.228 288.926,189.495C289.212,189.727 289.546,190.12 289.854,190.785C290.6,192.394 291.421,193.962 291.421,193.962C291.421,193.962 291.446,194.279 290.849,194.528C290.252,194.776 287.778,192.469 287.778,192.469L287.118,191.437Z" style="fill:rgb(252,175,22);fill-rule:nonzero;"/>
                </g>
                <g transform="matrix(4.16667,0,0,4.16667,-707.516,-640.965)">
                    <path d="M287.939,192.335C289.195,193.503 290.516,194.436 290.769,194.336C291.093,194.201 291.181,194.058 291.205,193.996C291.046,193.69 290.323,192.289 289.666,190.872C289.415,190.331 289.122,189.922 288.795,189.656C288.557,189.463 288.202,189.5 288.004,189.74L287.882,189.887C287.722,190.081 287.512,190.364 287.309,190.638C287.204,190.778 287.101,190.916 287.006,191.042L287.006,191.043C287.118,191.107 287.279,191.199 287.317,191.363L287.939,192.335ZM290.764,194.749C290.005,194.749 288.352,193.288 287.636,192.621L287.603,192.581L286.91,191.472C286.884,191.451 286.833,191.422 286.8,191.403C286.689,191.339 286.563,191.267 286.535,191.125C286.519,191.048 286.539,190.968 286.59,190.902C286.707,190.75 286.841,190.571 286.975,190.39C287.182,190.112 287.395,189.825 287.562,189.623L287.684,189.475C288.026,189.06 288.642,188.997 289.057,189.334C289.433,189.639 289.765,190.098 290.043,190.698C290.778,192.284 291.597,193.85 291.605,193.865L291.625,193.903L291.628,193.945C291.632,193.993 291.644,194.421 290.929,194.719C290.88,194.74 290.825,194.749 290.764,194.749Z" style="fill:rgb(24,13,52);fill-rule:nonzero;"/>
                </g>
                <g transform="matrix(4.16667,0,0,4.16667,-707.516,-640.965)">
                    <path d="M286.67,191.2L287.615,190.205C287.615,190.205 288.287,190.753 288.598,191.723C288.804,192.367 288.586,192.569 288.586,192.569L287.618,192.569L286.67,191.2Z" style="fill:rgb(24,13,52);fill-rule:nonzero;"/>
                </g>
                <g transform="matrix(4.16667,0,0,4.16667,-707.516,-640.965)">
                    <path d="M287.726,192.361L288.464,192.361C288.485,192.28 288.502,192.103 288.4,191.786C288.197,191.152 287.825,190.706 287.623,190.499L286.937,191.221L287.726,192.361ZM288.666,192.776L287.509,192.776L286.403,191.18L287.598,189.923L287.747,190.044C287.776,190.068 288.47,190.642 288.796,191.66C289.031,192.393 288.779,192.673 288.726,192.721L288.666,192.776Z" style="fill:rgb(24,13,52);fill-rule:nonzero;"/>
                </g>
                <g transform="matrix(4.16667,0,0,4.16667,-707.516,-640.965)">
                    <path d="M272.379,189.149C272.379,189.149 274.979,194.446 276.869,197.711C276.869,197.711 278.312,199.241 279.854,197.746C281.1,196.537 285.691,193.772 287.409,192.755C287.77,192.541 287.886,192.075 287.669,191.716L287.473,191.391C287.293,191.092 286.935,190.954 286.602,191.059C285.652,191.359 283.719,191.988 282.491,192.519C280.577,193.347 279.208,194.26 279.208,194.26C279.208,194.26 279.357,191.484 278.063,187.972C276.77,184.459 273.685,183.365 273.685,183.365L272.379,185.753L272.379,189.149Z" style="fill:white;fill-rule:nonzero;"/>
                </g>
                <g transform="matrix(4.16667,0,0,4.16667,-707.516,-640.965)">
                    <path d="M277.036,197.584C277.133,197.679 277.679,198.179 278.384,198.194C278.854,198.208 279.292,198.002 279.71,197.597C280.959,196.385 285.436,193.682 287.303,192.576C287.429,192.501 287.518,192.382 287.554,192.24C287.59,192.098 287.568,191.949 287.491,191.823L287.296,191.498C287.165,191.28 286.905,191.182 286.664,191.257C285.653,191.576 283.776,192.189 282.573,192.709C280.7,193.52 279.336,194.424 279.323,194.433L278.979,194.662L279,194.249C279.002,194.222 279.131,191.47 277.869,188.043C276.794,185.126 274.421,183.91 273.778,183.627L272.587,185.806L272.587,189.101C272.839,189.613 275.261,194.516 277.036,197.584ZM278.416,198.609L278.372,198.609C277.421,198.587 276.747,197.884 276.718,197.854L276.69,197.815C274.817,194.581 272.219,189.294 272.193,189.241L272.172,189.197L272.172,185.7L273.588,183.11L273.755,183.169C273.885,183.215 276.946,184.337 278.258,187.9C279.284,190.686 279.414,192.989 279.421,193.88C279.943,193.559 281.044,192.919 282.409,192.328C283.628,191.801 285.52,191.183 286.539,190.861C286.962,190.728 287.421,190.901 287.651,191.284L287.847,191.608C287.981,191.83 288.02,192.091 287.957,192.342C287.893,192.592 287.737,192.802 287.515,192.933C286.068,193.79 281.25,196.681 279.999,197.895C279.51,198.369 278.977,198.609 278.416,198.609Z" style="fill:rgb(24,13,52);fill-rule:nonzero;"/>
                </g>
                <g transform="matrix(4.16667,0,0,4.16667,-707.516,-640.965)">
                    <path d="M269.939,208.222C269.939,208.222 269.367,209.097 267.874,210.098C266.381,211.098 267.222,212.293 268.77,211.802C269.765,211.487 271.047,210.817 271.837,210.379C272.463,210.031 272.779,209.293 272.561,208.61C272.558,208.6 272.555,208.59 272.551,208.58C272.215,207.554 272.032,207.605 272.032,207.605L270.255,207.859L269.939,208.222Z" style="fill:rgb(252,175,22);fill-rule:nonzero;"/>
                </g>
                <g transform="matrix(4.16667,0,0,4.16667,-707.516,-640.965)">
                    <path d="M270.104,208.348C270.023,208.467 269.42,209.312 267.99,210.27C267.449,210.633 267.195,211.064 267.341,211.369C267.481,211.657 267.995,211.831 268.707,211.604C269.711,211.286 271.036,210.586 271.736,210.197C272.284,209.893 272.548,209.252 272.363,208.673C272.169,208.081 272.04,207.881 271.989,207.819L270.361,208.054L270.104,208.348ZM268.094,212.121C267.569,212.121 267.145,211.919 266.967,211.549C266.775,211.149 266.882,210.513 267.758,209.925C269.192,208.965 269.76,208.116 269.765,208.108L269.783,208.085L270.149,207.665L272.003,207.399C272.234,207.334 272.473,207.676 272.749,208.515L272.759,208.549C273.004,209.313 272.658,210.16 271.938,210.56C271.066,211.045 269.819,211.688 268.833,212C268.575,212.082 268.325,212.121 268.094,212.121Z" style="fill:rgb(24,13,52);fill-rule:nonzero;"/>
                </g>
                <g transform="matrix(4.16667,0,0,4.16667,-707.516,-640.965)">
                    <path d="M269.861,208.39C269.861,208.39 270.48,209.002 271.759,208.65L272.069,208.216L271.872,206.908L270.455,206.99C270.455,206.99 269.943,207.975 269.861,208.39Z" style="fill:rgb(24,13,52);fill-rule:nonzero;"/>
                </g>
                <g transform="matrix(4.16667,0,0,4.16667,-707.516,-640.965)">
                    <path d="M270.096,208.311C270.289,208.439 270.791,208.681 271.633,208.469L271.852,208.164L271.695,207.127L270.586,207.191C270.443,207.474 270.193,207.996 270.096,208.311ZM271,208.967C270.162,208.967 269.738,208.56 269.715,208.538L269.636,208.459L269.658,208.35C269.743,207.918 270.217,206.998 270.271,206.894L270.325,206.79L272.049,206.69L272.287,208.268L271.885,208.831L271.814,208.85C271.509,208.935 271.237,208.967 271,208.967Z" style="fill:rgb(24,13,52);fill-rule:nonzero;"/>
                </g>
                <g transform="matrix(4.16667,0,0,4.16667,-707.516,-640.965)">
                    <path d="M275.469,189.125C275.469,189.125 273.612,192.054 272.509,194.966C271.407,197.878 271.505,198.996 271.379,200.284C271.252,201.572 270.157,207.604 270.157,207.604C270.157,207.604 270.925,208.357 272.032,207.605C272.032,207.605 273.688,203.886 274.023,202.606C274.44,201.014 274.516,199.007 274.516,199.007C274.516,199.007 279.776,193.412 280.213,189.776C280.649,186.139 275.469,189.125 275.469,189.125Z" style="fill:white;fill-rule:nonzero;"/>
                </g>
                <g transform="matrix(4.16667,0,0,4.16667,-707.516,-640.965)">
                    <path d="M270.383,207.52C270.582,207.661 271.127,207.94 271.867,207.465C272.073,206.998 273.517,203.718 273.822,202.554C274.229,201.003 274.308,199.019 274.309,198.999L274.312,198.921L274.365,198.865C274.417,198.809 279.583,193.278 280.006,189.751C280.09,189.053 279.96,188.585 279.618,188.359C278.715,187.764 276.468,188.799 275.617,189.28C275.384,189.653 273.713,192.371 272.703,195.039C271.794,197.442 271.71,198.624 271.636,199.666C271.621,199.88 271.606,200.09 271.585,200.304C271.468,201.501 270.543,206.639 270.383,207.52ZM271.049,208.144C270.568,208.144 270.195,207.932 270.012,207.753L269.933,207.675L269.953,207.567C269.964,207.507 271.048,201.529 271.172,200.264C271.193,200.053 271.207,199.847 271.222,199.637C271.298,198.566 271.384,197.352 272.315,194.892C273.412,191.994 275.275,189.044 275.294,189.014L275.321,188.971L275.365,188.946C275.494,188.871 278.527,187.141 279.847,188.013C280.33,188.332 280.523,188.933 280.419,189.8C279.998,193.308 275.306,198.461 274.72,199.093C274.702,199.483 274.6,201.221 274.224,202.659C273.888,203.94 272.29,207.537 272.222,207.689L272.198,207.743L272.149,207.776C271.75,208.047 271.375,208.144 271.049,208.144Z" style="fill:rgb(24,13,52);fill-rule:nonzero;"/>
                </g>
                <g transform="matrix(4.16667,0,0,4.16667,-707.516,-640.965)">
                    <path d="M273.545,200.001L273.333,199.643C273.551,199.514 274.159,199.125 274.353,198.879L274.679,199.135C274.402,199.487 273.632,199.949 273.545,200.001Z" style="fill:rgb(24,13,52);fill-rule:nonzero;"/>
                </g>
                <g transform="matrix(4.16667,0,0,4.16667,-707.516,-640.965)">
                    <path d="M279.321,195.178L278.919,195.078C279.018,194.681 278.989,194.329 278.989,194.326L279.402,194.289C279.404,194.306 279.438,194.711 279.321,195.178Z" style="fill:rgb(24,13,52);fill-rule:nonzero;"/>
                </g>
                <g transform="matrix(4.16667,0,0,4.16667,-707.516,-640.965)">
                    <path d="M270.099,209.957C269.175,209.646 268.955,209.263 268.933,209.22L269.299,209.024C269.301,209.027 269.478,209.31 270.232,209.563L270.099,209.957Z" style="fill:rgb(24,13,52);fill-rule:nonzero;"/>
                </g>
                <g transform="matrix(4.16667,0,0,4.16667,-707.516,-640.965)">
                    <path d="M288.862,193.597L288.814,193.185C288.833,193.182 289.278,193.115 289.526,192.492L289.912,192.645C289.568,193.51 288.891,193.594 288.862,193.597Z" style="fill:rgb(24,13,52);fill-rule:nonzero;"/>
                </g>
                <g transform="matrix(4.16667,0,0,4.16667,-707.516,-640.965)">
                    <path d="M277.539,168.138C278.273,168.601 278.88,169.245 279.282,170.015C279.692,170.801 280.158,171.901 280.385,173.157C280.537,174 280.717,174.659 280.963,175.485C281.357,176.804 280.621,178.196 279.307,178.61L276.223,171.869L277.538,168.137L277.539,168.138Z" style="fill:white;fill-rule:nonzero;"/>
                </g>
                <g transform="matrix(4.16667,0,0,4.16667,-707.516,-640.965)">
                    <path d="M276.446,171.859L279.417,178.35C280.506,177.909 281.106,176.69 280.764,175.544C280.508,174.684 280.33,174.024 280.18,173.194C279.951,171.922 279.465,170.815 279.098,170.111C278.759,169.461 278.26,168.894 277.645,168.459L276.446,171.859ZM279.195,178.863L275.999,171.879L277.42,167.847L277.65,167.962C278.426,168.453 279.054,169.129 279.466,169.919C279.846,170.649 280.35,171.797 280.589,173.121C280.735,173.931 280.91,174.58 281.162,175.426C281.586,176.846 280.782,178.363 279.37,178.808L279.195,178.863Z" style="fill:rgb(24,13,52);fill-rule:nonzero;"/>
                </g>
                <g transform="matrix(4.16667,0,0,4.16667,-707.516,-640.965)">
                    <path d="M272.224,168.186C272.073,168.081 271.863,168.154 271.813,168.331C271.635,168.955 271.223,170.222 270.674,170.828C269.929,171.649 269.503,173.272 270.674,174.575L273.561,171.495L273.561,169.112L272.224,168.186Z" style="fill:white;fill-rule:nonzero;"/>
                </g>
                <g transform="matrix(4.16667,0,0,4.16667,-707.516,-640.965)">
                    <path d="M272.07,168.345C272.061,168.345 272.054,168.347 272.049,168.349C272.036,168.353 272.019,168.364 272.012,168.388C271.814,169.082 271.397,170.34 270.828,170.967C270.25,171.604 269.736,173.029 270.683,174.261L273.353,171.413L273.353,169.22L272.106,168.357C272.093,168.348 272.081,168.345 272.07,168.345ZM270.671,174.882L270.52,174.713C269.34,173.4 269.639,171.66 270.52,170.688C271.052,170.103 271.461,168.805 271.613,168.274C271.655,168.127 271.766,168.009 271.909,167.958C272.054,167.906 272.215,167.928 272.342,168.015L273.769,169.003L273.769,171.577L270.671,174.882Z" style="fill:rgb(24,13,52);fill-rule:nonzero;"/>
                </g>
                <g transform="matrix(4.16667,0,0,4.16667,-707.516,-640.965)">
                    <path d="M267.276,182.378C267.276,182.378 266.376,183.822 266.498,184.647C266.613,185.425 267.531,185.658 268.162,185.553C268.224,185.543 268.265,185.484 268.258,185.422C268.235,185.222 268.202,184.781 268.299,184.402C268.4,184.008 268.678,184.418 268.798,184.623C268.817,184.656 268.867,184.645 268.872,184.607C268.904,184.35 268.939,183.709 268.625,183.115C268.545,182.966 268.637,182.542 268.528,182.446C268.078,182.055 267.276,182.378 267.276,182.378Z" style="fill:rgb(24,13,52);fill-rule:nonzero;"/>
                </g>
                <g transform="matrix(4.16667,0,0,4.16667,-707.516,-640.965)">
                    <path d="M267.414,182.55C267.156,182.981 266.617,184.033 266.703,184.617C266.734,184.825 266.839,184.996 267.016,185.125C267.304,185.335 267.722,185.394 268.042,185.36C268.019,185.109 268.006,184.709 268.098,184.35C268.159,184.113 268.289,184.046 268.389,184.033C268.487,184.019 268.583,184.051 268.681,184.133C268.667,183.864 268.609,183.529 268.441,183.212C268.381,183.098 268.38,182.95 268.38,182.794C268.38,182.731 268.38,182.631 268.371,182.586C268.083,182.363 267.586,182.494 267.414,182.55ZM267.867,185.785C267.462,185.785 267.056,185.668 266.772,185.461C266.505,185.267 266.339,184.996 266.292,184.677C266.161,183.787 267.061,182.33 267.1,182.268L267.135,182.211L267.198,182.186C267.236,182.171 268.126,181.821 268.664,182.29C268.794,182.403 268.795,182.593 268.795,182.793C268.795,182.865 268.796,182.986 268.809,183.021C269.151,183.666 269.111,184.363 269.078,184.632C269.065,184.738 268.986,184.824 268.882,184.845C268.777,184.866 268.672,184.819 268.619,184.727C268.565,184.636 268.52,184.571 268.483,184.526C268.415,184.862 268.446,185.243 268.464,185.399C268.484,185.572 268.366,185.73 268.196,185.758C268.088,185.776 267.977,185.785 267.867,185.785Z" style="fill:rgb(24,13,52);fill-rule:nonzero;"/>
                </g>
                <g transform="matrix(4.16667,0,0,4.16667,-707.516,-640.965)">
                    <path d="M274.258,172.519C272.417,171.723 271.77,172.42 271.223,172.992C270.676,173.564 270.029,175.231 270.029,175.231L269.808,175.739C269.538,176.359 269.284,176.985 269.053,177.62C268.863,178.142 268.552,178.93 268.113,179.815C267.874,180.3 267.356,181.651 267.276,181.855C267.202,182.042 267.293,182.252 267.479,182.328L268.266,182.651C268.421,182.715 268.599,182.666 268.699,182.531C269.078,182.023 269.995,180.757 270.518,179.749C270.75,179.303 270.648,178.535 270.926,177.741L272.243,178.738L274.083,176.4C274.083,176.4 276.098,173.315 274.258,172.519Z" style="fill:rgb(252,175,22);fill-rule:nonzero;"/>
                </g>
                <g transform="matrix(4.16667,0,0,4.16667,-707.516,-640.965)">
                    <path d="M272.811,172.366C272.108,172.366 271.743,172.749 271.385,173.123C270.861,173.671 270.229,175.29 270.222,175.306L269.998,175.822C269.709,176.486 269.464,177.097 269.248,177.691C269.062,178.204 268.746,179.006 268.299,179.907C268.091,180.329 267.656,181.451 267.512,181.82L267.469,181.931C267.437,182.012 267.476,182.102 267.558,182.136L268.344,182.459C268.412,182.486 268.49,182.466 268.533,182.407C268.902,181.911 269.816,180.65 270.334,179.653C270.431,179.467 270.461,179.187 270.497,178.864C270.537,178.504 270.582,178.096 270.73,177.673L270.824,177.404L272.206,178.45L273.92,176.272C273.922,176.268 275.098,174.446 274.768,173.351C274.678,173.053 274.484,172.844 274.175,172.71C273.606,172.464 273.165,172.366 272.811,172.366ZM268.406,182.886C268.332,182.886 268.258,182.872 268.187,182.843L267.4,182.52C267.111,182.401 266.969,182.069 267.082,181.779L267.125,181.669C267.285,181.257 267.711,180.161 267.927,179.723C268.365,178.839 268.675,178.053 268.858,177.549C269.077,176.947 269.325,176.328 269.617,175.656L269.838,175.148C269.862,175.086 270.504,173.444 271.073,172.849C271.631,172.264 272.38,171.482 274.34,172.329C274.763,172.512 275.041,172.815 275.166,173.232C275.551,174.512 274.31,176.432 274.257,176.513L272.28,179.027L271.039,178.088C270.969,178.373 270.938,178.654 270.91,178.909C270.87,179.274 270.835,179.589 270.702,179.845C270.171,180.868 269.241,182.151 268.866,182.655C268.755,182.804 268.583,182.886 268.406,182.886Z" style="fill:rgb(24,13,52);fill-rule:nonzero;"/>
                </g>
                <g transform="matrix(4.16667,0,0,4.16667,-707.516,-640.965)">
                    <path d="M271.795,174.012C271.795,174.012 271.539,175.614 271.019,177.034C270.499,178.455 270.601,179.236 271.098,180.43C271.596,181.624 271.845,183.514 271.795,184.658C271.745,185.803 271.779,186.747 271.779,186.747L271.722,188.52L272.939,189.686L274.133,190.23C274.133,190.23 276.073,191.082 278.561,189.686C279.777,189.003 280.454,188.59 280.829,188.345C281.088,188.176 281.171,187.838 281.019,187.569C280.491,186.634 279.33,184.4 279.063,182.416C278.715,179.829 279.262,178.238 279.262,178.238C279.262,178.238 279.854,175.106 278.362,174.012C278.039,173.775 277.777,173.537 277.565,173.307C276.699,172.375 275.411,171.96 274.153,172.146L272.641,172.37C272.641,172.37 272.078,172.514 271.795,174.012Z" style="fill:rgb(252,175,22);fill-rule:nonzero;"/>
                </g>
                <g transform="matrix(4.16667,0,0,4.16667,-707.516,-640.965)">
                    <path d="M273.057,189.511L274.219,190.041C274.235,190.048 276.1,190.829 278.459,189.505C279.716,188.8 280.38,188.39 280.715,188.171C280.884,188.06 280.937,187.845 280.838,187.671C280.334,186.777 279.131,184.478 278.857,182.444C278.507,179.838 279.043,178.237 279.066,178.17C279.064,178.169 279.608,175.183 278.239,174.179C277.931,173.953 277.653,173.708 277.412,173.449C276.607,172.582 275.4,172.171 274.183,172.352L272.672,172.575C272.684,172.575 272.243,172.765 271.999,174.048C271.983,174.148 271.729,175.7 271.214,177.105C270.703,178.499 270.825,179.233 271.29,180.35C271.8,181.574 272.053,183.506 272.002,184.667C271.954,185.789 271.987,186.73 271.987,186.739L271.932,188.434L273.057,189.511ZM275.66,190.698C274.703,190.698 274.095,190.44 274.05,190.42L272.796,189.836L271.511,188.605L271.572,186.74C271.571,186.74 271.538,185.786 271.588,184.649C271.636,183.534 271.395,181.68 270.907,180.509C270.409,179.313 270.269,178.478 270.824,176.962C271.331,175.578 271.587,173.995 271.59,173.979L271.591,173.973C271.89,172.392 272.518,172.187 272.589,172.169L274.122,171.941C275.475,171.74 276.818,172.199 277.717,173.166C277.939,173.406 278.198,173.634 278.485,173.844C280.065,175.003 279.491,178.143 279.466,178.276C279.453,178.32 278.932,179.889 279.269,182.389C279.533,184.352 280.707,186.594 281.2,187.467C281.404,187.829 281.291,188.29 280.942,188.518C280.447,188.843 279.68,189.296 278.662,189.867C277.502,190.518 276.459,190.698 275.66,190.698Z" style="fill:rgb(24,13,52);fill-rule:nonzero;"/>
                </g>
                <g transform="matrix(4.16667,0,0,4.16667,-707.516,-640.965)">
                    <path d="M276.868,170.367L276.966,170.181C276.966,170.181 274.695,168.564 273.742,168.564C272.79,168.564 272.379,168.689 272.379,168.689C272.379,168.689 272.12,169.278 272.131,170.079C272.143,170.881 273.126,171.79 273.126,171.79C273.126,171.79 273.339,172.155 272.974,173.315C272.974,173.315 272.178,175.538 273.77,176.267C275.362,176.997 276.966,173.315 276.966,173.315C276.966,173.315 276.921,173.251 276.858,173.135C276.393,172.274 276.412,171.232 276.868,170.367Z" style="fill:rgb(24,13,52);fill-rule:nonzero;"/>
                </g>
                <g transform="matrix(4.16667,0,0,4.16667,-707.516,-640.965)">
                    <path d="M272.252,168.97C272.252,168.97 271.675,171.567 272.985,173.675C272.985,173.675 274.471,173.941 275.359,172.543L272.252,168.97Z" style="fill:rgb(24,13,52);fill-rule:nonzero;"/>
                </g>
                <g transform="matrix(4.16667,0,0,4.16667,-707.516,-640.965)">
                    <path d="M273.289,173.904C273.094,173.904 272.966,173.882 272.948,173.879L272.857,173.863L272.808,173.784C271.47,171.629 272.025,169.035 272.05,168.925L272.455,169.015C272.45,169.04 271.928,171.487 273.11,173.481C273.427,173.51 274.495,173.517 275.184,172.432L275.534,172.654C274.84,173.747 273.817,173.904 273.289,173.904Z" style="fill:rgb(24,13,52);fill-rule:nonzero;"/>
                </g>
                <g transform="matrix(4.16667,0,0,4.16667,-707.516,-640.965)">
                    <path d="M272.696,168.482C272.776,168.372 272.953,168.417 272.971,168.552C273.029,168.983 273.595,169.935 274.548,170.452C276.016,171.248 276.397,171.252 276.633,172.582C276.633,172.582 277.028,172.995 277.423,173.57C277.952,174.338 278.727,174.872 279.562,175.29C279.735,175.376 279.91,175.523 280.079,175.754C280.079,175.754 278.039,172.544 278.312,170.455C278.586,168.365 276.853,166.326 275.033,166.127C273.843,165.996 272.708,166.664 272.093,167.614C271.609,168.36 271.651,169.332 272.131,170.079C272.131,170.079 272.159,169.228 272.696,168.482Z" style="fill:white;fill-rule:nonzero;"/>
                </g>
                <g transform="matrix(4.16667,0,0,4.16667,-707.516,-640.965)">
                    <path d="M276.827,172.485C276.942,172.61 277.266,172.975 277.594,173.452C277.996,174.036 278.569,174.521 279.386,174.964C278.789,173.841 277.914,171.894 278.106,170.428C278.227,169.511 277.931,168.521 277.297,167.713C276.689,166.939 275.834,166.423 275.01,166.333C273.967,166.22 272.889,166.766 272.267,167.727C271.951,168.215 271.877,168.822 272.042,169.389C272.128,169.083 272.275,168.712 272.528,168.361C272.613,168.242 272.761,168.187 272.906,168.223C273.051,168.259 273.157,168.377 273.177,168.524C273.226,168.891 273.76,169.789 274.647,170.27C274.85,170.38 275.032,170.475 275.196,170.56C276.213,171.09 276.604,171.293 276.827,172.485ZM279.911,175.876C279.774,175.689 279.626,175.554 279.469,175.475C278.442,174.961 277.737,174.393 277.252,173.687C276.872,173.135 276.487,172.73 276.483,172.726L276.44,172.68L276.429,172.619C276.243,171.574 276.005,171.45 275.004,170.928C274.838,170.842 274.654,170.746 274.449,170.635C273.537,170.14 272.936,169.251 272.792,168.71C272.367,169.369 272.339,170.079 272.339,170.086L272.317,170.752L271.957,170.192C271.418,169.354 271.403,168.298 271.918,167.501C272.625,166.41 273.858,165.789 275.056,165.92C276.002,166.024 276.938,166.584 277.624,167.457C278.327,168.352 278.653,169.454 278.518,170.482C278.257,172.472 280.234,175.611 280.254,175.642L279.911,175.876Z" style="fill:rgb(24,13,52);fill-rule:nonzero;"/>
                </g>
                <g transform="matrix(4.16667,0,0,4.16667,-707.516,-640.965)">
                    <path d="M271.823,169.847C271.626,169.413 271.596,168.749 271.594,168.721L271.914,168.708C271.914,168.714 271.942,169.338 272.114,169.715L271.823,169.847Z" style="fill:rgb(24,13,52);fill-rule:nonzero;"/>
                </g>
                <g transform="matrix(4.16667,0,0,4.16667,-707.516,-640.965)">
                    <path d="M273.058,168.459L272.649,168.39C272.658,168.334 272.9,167.002 274.704,166.484L274.819,166.883C273.264,167.329 273.06,168.448 273.058,168.459Z" style="fill:rgb(24,13,52);fill-rule:nonzero;"/>
                </g>
                <g transform="matrix(4.16667,0,0,4.16667,-707.516,-640.965)">
                    <path d="M272.148,172.433C270.759,171.731 270.743,170.504 270.743,170.452L271.159,170.452L270.951,170.452L271.159,170.451C271.159,170.493 271.182,171.48 272.335,172.062L272.148,172.433Z" style="fill:rgb(24,13,52);fill-rule:nonzero;"/>
                </g>
                <g transform="matrix(4.16667,0,0,4.16667,-707.516,-640.965)">
                    <path d="M268.951,182.185C268.552,181.892 267.443,181.462 267.431,181.458L267.581,181.071C267.629,181.089 268.753,181.525 269.197,181.851L268.951,182.185Z" style="fill:rgb(24,13,52);fill-rule:nonzero;"/>
                </g>
                <g transform="matrix(4.16667,0,0,4.16667,-707.516,-640.965)">
                    <path d="M275.865,181.988C274.497,181.859 273.717,180.983 273.685,180.946L273.998,180.672C274.005,180.68 274.706,181.462 275.904,181.574L275.865,181.988Z" style="fill:rgb(24,13,52);fill-rule:nonzero;"/>
                </g>
                <g transform="matrix(4.16667,0,0,4.16667,-707.516,-640.965)">
                    <path d="M274.305,177.396C273.603,177.396 273.083,177.114 273.048,177.095L273.249,176.731C273.296,176.757 274.423,177.359 275.523,176.591C275.676,176.485 275.825,176.343 275.993,176.145L276.688,175.325C276.718,175.292 277.31,174.654 277.909,174.49L278.019,174.89C277.535,175.023 277.004,175.594 276.999,175.6L276.31,176.413C276.118,176.64 275.944,176.804 275.761,176.932C275.254,177.285 274.744,177.396 274.305,177.396Z" style="fill:rgb(24,13,52);fill-rule:nonzero;"/>
                </g>
                <g transform="matrix(4.16667,0,0,4.16667,-707.516,-640.965)">
                    <path d="M270.441,179.521C270.142,178.93 269.525,178.815 269.519,178.814L269.591,178.405C269.624,178.411 270.42,178.559 270.811,179.334L270.441,179.521Z" style="fill:rgb(24,13,52);fill-rule:nonzero;"/>
                </g>
                <g transform="matrix(4.16667,0,0,4.16667,-707.516,-640.965)">
                    <path d="M272.032,184.456C272.032,184.456 274.91,188.012 275.248,189.944L278.685,187.872C278.685,187.872 277.676,184.264 275.955,182.679L272.032,184.456Z" style="fill:white;fill-rule:nonzero;"/>
                </g>
                <g transform="matrix(4.16667,0,0,4.16667,-707.516,-640.965)">
                    <path d="M272.36,184.536C272.954,185.293 274.921,187.89 275.387,189.618L278.441,187.777C278.233,187.099 277.318,184.308 275.913,182.926L272.36,184.536ZM275.096,190.279L275.043,189.98C274.718,188.122 271.899,184.622 271.871,184.587L271.702,184.378L275.994,182.433L276.095,182.526C277.84,184.133 278.844,187.666 278.885,187.816L278.928,187.968L275.096,190.279Z" style="fill:rgb(24,13,52);fill-rule:nonzero;"/>
                </g>
                <g transform="matrix(4.16667,0,0,4.16667,-707.516,-640.965)">
                    <path d="M272.588,182.292C272.588,182.292 275.465,185.847 275.803,187.78L279.241,185.707C279.241,185.707 278.231,182.1 276.51,180.514L272.588,182.292Z" style="fill:white;fill-rule:nonzero;"/>
                </g>
                <g transform="matrix(4.16667,0,0,4.16667,-707.516,-640.965)">
                    <path d="M272.916,182.371C273.51,183.129 275.476,185.726 275.942,187.454L278.996,185.613C278.789,184.934 277.874,182.144 276.468,180.761L272.916,182.371ZM275.651,188.114L275.599,187.816C275.274,185.958 272.455,182.457 272.426,182.422L272.257,182.213L276.55,180.269L276.651,180.362C278.395,181.968 279.399,185.502 279.441,185.651L279.483,185.804L275.651,188.114Z" style="fill:rgb(24,13,52);fill-rule:nonzero;"/>
                </g>
                <g transform="matrix(4.16667,0,0,4.16667,-707.516,-640.965)">
                    <path d="M274.863,182.646C274.863,182.646 277.191,185.523 277.465,187.087L280.247,185.41C280.247,185.41 279.43,182.49 278.037,181.208L274.863,182.646Z" style="fill:rgb(24,13,52);fill-rule:nonzero;"/>
                </g>
                <g transform="matrix(4.16667,0,0,4.16667,-707.516,-640.965)">
                    <path d="M275.191,182.725C275.7,183.378 277.206,185.386 277.602,186.762L280.002,185.315C279.819,184.725 279.095,182.554 277.995,181.455L275.191,182.725ZM277.313,187.421L277.26,187.123C276.999,185.629 274.724,182.805 274.702,182.776L274.533,182.567L278.076,180.962L278.178,181.055C279.597,182.363 280.413,185.232 280.447,185.354L280.489,185.506L277.313,187.421Z" style="fill:rgb(24,13,52);fill-rule:nonzero;"/>
                </g>
                <g transform="matrix(4.16667,0,0,4.16667,-707.516,-640.965)">
                    <path d="M278.515,182.943C278.515,182.943 282.135,180.754 283.948,180.687L282.481,177.277C282.481,177.277 279.049,177.748 277.38,179.126L278.515,182.943Z" style="fill:white;fill-rule:nonzero;"/>
                </g>
                <g transform="matrix(4.16667,0,0,4.16667,-707.516,-640.965)">
                    <path d="M277.619,179.201L278.638,182.629C279.426,182.17 282.01,180.724 283.644,180.506L282.354,177.507C281.688,177.615 279.052,178.101 277.619,179.201ZM278.393,183.26L277.142,179.054L277.248,178.966C278.942,177.567 282.31,177.091 282.453,177.071L282.609,177.05L284.258,180.883L283.955,180.894C282.217,180.959 278.658,183.099 278.623,183.121L278.393,183.26Z" style="fill:rgb(24,13,52);fill-rule:nonzero;"/>
                </g>
                <g transform="matrix(4.16667,0,0,4.16667,-707.516,-640.965)">
                    <path d="M276.867,186.427L276.242,186.217C276.242,186.217 275.645,185.454 275.129,185.454C274.614,185.454 275.344,186.405 275.377,186.427C275.41,186.449 274.568,187.058 273.918,186.748C273.268,186.437 273.099,187.997 274.581,188.406C276.063,188.816 277.279,187.658 277.279,187.658L276.867,186.427Z" style="fill:rgb(24,13,52);fill-rule:nonzero;"/>
                </g>
                <g transform="matrix(4.16667,0,0,4.16667,-707.516,-640.965)">
                    <path d="M273.757,186.915C273.736,186.915 273.726,186.923 273.721,186.926C273.664,186.971 273.624,187.12 273.661,187.309C273.692,187.465 273.853,187.99 274.636,188.206C275.755,188.515 276.732,187.836 277.038,187.591L276.703,186.591L276.117,186.394L276.079,186.345C275.878,186.09 275.459,185.689 275.159,185.663C275.199,185.82 275.41,186.15 275.511,186.267L275.653,186.361L275.557,186.535C275.475,186.681 274.569,187.289 273.828,186.935C273.796,186.92 273.773,186.915 273.757,186.915ZM275.233,188.702C275.007,188.702 274.77,188.674 274.526,188.606C273.843,188.418 273.367,187.963 273.254,187.39C273.187,187.055 273.269,186.752 273.467,186.598C273.617,186.482 273.814,186.468 274.007,186.56C274.383,186.741 274.857,186.526 275.086,186.39C274.91,186.147 274.678,185.751 274.755,185.495C274.801,185.34 274.941,185.247 275.129,185.247C275.664,185.247 276.207,185.849 276.366,186.04L277.031,186.263L277.518,187.717L277.422,187.808C277.377,187.851 276.466,188.702 275.233,188.702Z" style="fill:rgb(24,13,52);fill-rule:nonzero;"/>
                </g>
                <g transform="matrix(4.16667,0,0,4.16667,-707.516,-640.965)">
                    <path d="M277.533,175.04C277.533,175.04 276.604,175.77 277.864,177.727C278.909,179.348 280.679,181.443 281.256,182.113C281.355,182.229 281.343,182.404 281.224,182.499C280.824,182.819 279.87,183.395 279.205,184.237C278.455,185.186 277.294,185.911 276.939,186.12C276.873,186.159 276.837,186.232 276.848,186.309C276.888,186.592 277.024,187.297 277.441,187.934C277.455,187.954 277.483,187.961 277.504,187.947C277.959,187.648 282.441,184.696 284.198,183.281C284.347,183.161 284.389,182.957 284.301,182.788C283.825,181.864 282.284,178.922 281.115,177.196C279.946,175.471 278.727,173.713 277.533,175.04Z" style="fill:rgb(252,175,22);fill-rule:nonzero;"/>
                </g>
                <g transform="matrix(4.16667,0,0,4.16667,-707.516,-640.965)">
                    <path d="M277.663,175.202C277.623,175.236 276.919,175.874 278.039,177.614C279.082,179.233 280.886,181.364 281.413,181.978C281.498,182.077 281.54,182.208 281.528,182.337C281.516,182.466 281.454,182.581 281.353,182.662C281.259,182.737 281.135,182.826 280.991,182.93C280.542,183.253 279.862,183.741 279.368,184.366C278.594,185.346 277.394,186.093 277.045,186.298C277.087,186.523 277.2,187.116 277.529,187.682C278.437,187.083 282.433,184.436 284.068,183.119C284.139,183.062 284.159,182.965 284.117,182.883C283.668,182.012 282.111,179.036 280.943,177.312C280.157,176.153 279.267,174.839 278.466,174.784C278.198,174.766 277.943,174.895 277.687,175.179L277.663,175.202ZM277.48,188.162C277.463,188.162 277.445,188.16 277.428,188.157C277.361,188.143 277.305,188.104 277.267,188.047C276.825,187.373 276.683,186.627 276.643,186.337C276.62,186.178 276.695,186.022 276.834,185.941C277.168,185.744 278.313,185.032 279.042,184.109C279.572,183.437 280.28,182.929 280.749,182.592C280.886,182.494 281.004,182.409 281.094,182.337C281.109,182.325 281.114,182.31 281.115,182.299C281.116,182.288 281.115,182.268 281.099,182.249C280.416,181.455 278.718,179.436 277.69,177.839C276.421,175.869 277.25,175.013 277.388,174.891C277.727,174.518 278.101,174.344 278.495,174.37C279.497,174.438 280.407,175.781 281.287,177.079C282.468,178.823 284.034,181.816 284.486,182.693C284.62,182.952 284.555,183.26 284.328,183.443C282.568,184.861 278.119,187.791 277.618,188.121C277.576,188.148 277.529,188.162 277.48,188.162Z" style="fill:rgb(24,13,52);fill-rule:nonzero;"/>
                </g>
                <g transform="matrix(4.16667,0,0,4.16667,-707.516,-640.965)">
                    <path d="M278.066,187.549C277.611,186.667 277.426,185.756 277.418,185.718L277.825,185.636C277.827,185.645 278.008,186.53 278.435,187.358L278.066,187.549Z" style="fill:rgb(24,13,52);fill-rule:nonzero;"/>
                </g>
                <g transform="matrix(4.16667,0,0,4.16667,-707.516,-640.965)">
                    <path d="M281.95,182.606C281.585,182.262 281.315,182.314 281.304,182.315L281.203,181.913C281.253,181.899 281.699,181.801 282.234,182.304L281.95,182.606Z" style="fill:rgb(24,13,52);fill-rule:nonzero;"/>
                </g>
                <g transform="matrix(4.16667,0,0,4.16667,-707.516,-640.965)">
                    <path d="M273.447,173.827C273.333,173.827 273.263,173.814 273.252,173.812L273.298,173.577C273.337,173.584 274.259,173.743 275.196,172.571L275.383,172.721C274.6,173.7 273.805,173.827 273.447,173.827Z" style="fill:rgb(252,175,22);fill-rule:nonzero;"/>
                </g>
                <g transform="matrix(4.16667,0,0,4.16667,-707.516,-640.965)">
                    <path d="M276.763,172.745L276.504,172.42C276.59,172.351 278.601,170.699 277.565,168.093L277.95,167.939C279.103,170.837 276.786,172.726 276.763,172.745Z" style="fill:rgb(24,13,52);fill-rule:nonzero;"/>
                </g>
                <g transform="matrix(4.16667,0,0,4.16667,-707.516,-640.965)">
                    <path d="M272.942,172.102C272.883,172.102 272.825,172.078 272.783,172.035C272.739,171.99 272.715,171.928 272.719,171.865L272.761,171.148L273,171.162L272.958,171.879C273.015,171.859 273.125,171.841 273.229,171.774L273.359,171.975C273.21,172.071 273.056,172.097 272.953,172.102L272.942,172.102Z" style="fill:rgb(252,175,22);fill-rule:nonzero;"/>
                </g>
                <g transform="matrix(4.16667,0,0,4.16667,-707.516,-640.965)">
                    <path d="M273.894,170.66C273.894,170.859 273.779,171.021 273.636,171.021C273.494,171.021 273.379,170.859 273.379,170.66C273.379,170.461 273.494,170.299 273.636,170.299C273.779,170.299 273.894,170.461 273.894,170.66Z" style="fill:rgb(252,175,22);fill-rule:nonzero;"/>
                </g>
                <g transform="matrix(4.16667,0,0,4.16667,-707.516,-640.965)">
                    <path d="M272.546,170.66C272.546,170.859 272.452,171.021 272.336,171.021C272.22,171.021 272.126,170.859 272.126,170.66C272.126,170.461 272.22,170.299 272.336,170.299C272.452,170.299 272.546,170.461 272.546,170.66Z" style="fill:rgb(252,175,22);fill-rule:nonzero;"/>
                </g>
                <g transform="matrix(4.16667,0,0,4.16667,-707.516,-640.965)">
                    <path d="M273.25,173.005C273.121,173.005 273.038,172.98 273.03,172.978L273.102,172.749L273.066,172.863L273.101,172.749C273.114,172.752 273.404,172.835 273.736,172.605L273.872,172.802C273.634,172.967 273.408,173.005 273.25,173.005Z" style="fill:rgb(252,175,22);fill-rule:nonzero;"/>
                </g>
                <g transform="matrix(4.16667,0,0,4.16667,-707.516,-640.965)">
                    <path d="M275.846,171.961C275.812,171.961 275.783,171.957 275.759,171.951L275.819,171.719C275.837,171.723 275.996,171.75 276.114,171.493L276.332,171.592C276.198,171.885 275.988,171.961 275.846,171.961Z" style="fill:rgb(252,175,22);fill-rule:nonzero;"/>
                </g>
                <g transform="matrix(4.16667,0,0,4.16667,-707.516,-640.965)">
                    <path d="M268.381,184.275C268.32,183.802 268.002,183.648 267.988,183.642L268.088,183.424C268.106,183.432 268.54,183.634 268.619,184.244L268.381,184.275Z" style="fill:rgb(252,175,22);fill-rule:nonzero;"/>
                </g>
                <g transform="matrix(4.16667,0,0,4.16667,-707.516,-640.965)">
                    <path d="M275.721,187.117L275.489,187.056C275.558,186.795 275.293,186.513 275.291,186.51L275.463,186.344C275.478,186.36 275.824,186.725 275.721,187.117Z" style="fill:rgb(252,175,22);fill-rule:nonzero;"/>
                </g>
                <g transform="matrix(4.16667,0,0,4.16667,-707.516,-640.965)">
                    <path d="M272.772,178.23C272.772,178.571 272.544,178.848 272.263,178.848C271.982,178.848 271.754,178.571 271.754,178.23C271.754,177.888 271.982,177.611 272.263,177.611C272.544,177.611 272.772,177.888 272.772,178.23Z" style="fill:rgb(252,175,22);fill-rule:nonzero;"/>
                </g>
                <g transform="matrix(4.16667,0,0,4.16667,-707.516,-640.965)">
                    <path d="M272.263,177.818C272.1,177.818 271.962,178.007 271.962,178.23C271.962,178.453 272.1,178.641 272.263,178.641C272.426,178.641 272.564,178.453 272.564,178.23C272.564,178.007 272.426,177.818 272.263,177.818ZM272.263,179.056C271.868,179.056 271.546,178.685 271.546,178.23C271.546,177.774 271.868,177.403 272.263,177.403C272.658,177.403 272.979,177.774 272.979,178.23C272.979,178.685 272.658,179.056 272.263,179.056Z" style="fill:rgb(24,13,52);fill-rule:nonzero;"/>
                </g>
                <g transform="matrix(4.16667,0,0,4.16667,-707.516,-640.965)">
                    <path d="M273.281,178.848C273.281,179.19 273.053,179.467 272.772,179.467C272.491,179.467 272.263,179.19 272.263,178.848C272.263,178.507 272.491,178.23 272.772,178.23C273.053,178.23 273.281,178.507 273.281,178.848Z" style="fill:white;fill-rule:nonzero;"/>
                </g>
                <g transform="matrix(4.16667,0,0,4.16667,-707.516,-640.965)">
                    <path d="M272.772,178.437C272.609,178.437 272.471,178.626 272.471,178.849C272.471,179.071 272.609,179.26 272.772,179.26C272.935,179.26 273.073,179.071 273.073,178.849C273.073,178.626 272.935,178.437 272.772,178.437ZM272.772,179.675C272.377,179.675 272.055,179.304 272.055,178.849C272.055,178.393 272.377,178.022 272.772,178.022C273.167,178.022 273.489,178.393 273.489,178.849C273.489,179.304 273.167,179.675 272.772,179.675Z" style="fill:rgb(24,13,52);fill-rule:nonzero;"/>
                </g>
                <g transform="matrix(4.16667,0,0,4.16667,-707.516,-640.965)">
                    <path d="M279.016,191.672C278.735,191.672 278.476,191.583 278.284,191.422C277.594,190.84 278.006,189.809 278.023,189.766L278.408,189.923C278.405,189.931 278.093,190.718 278.552,191.104C278.67,191.204 278.836,191.256 279.024,191.257L279.721,191.25L279.724,191.666L279.027,191.672L279.016,191.672Z" style="fill:rgb(24,13,52);fill-rule:nonzero;"/>
                </g>
                <g transform="matrix(4.16667,0,0,4.16667,-707.516,-640.965)">
                    <path d="M287.678,179.701C287.678,179.701 292.242,180.002 293.891,181.065L294.702,177.134C294.702,177.134 291.368,175.426 289.035,175.614L287.678,179.701Z" style="fill:rgb(252,175,22);fill-rule:nonzero;"/>
                </g>
                <g transform="matrix(4.16667,0,0,4.16667,-707.516,-640.965)">
                    <path d="M287.959,179.514C288.919,179.592 292.161,179.911 293.746,180.741L294.467,177.249C293.828,176.941 291.156,175.718 289.188,175.812L287.959,179.514ZM294.033,181.404L293.779,181.239C292.194,180.217 287.71,179.911 287.665,179.908L287.397,179.89L288.882,175.418L289.019,175.407C291.382,175.216 294.659,176.878 294.797,176.949L294.938,177.021L294.033,181.404Z" style="fill:rgb(24,13,52);fill-rule:nonzero;"/>
                </g>
                <g transform="matrix(4.16667,0,0,4.16667,-707.516,-640.965)">
                    <path d="M287.113,182.466C287.113,182.466 290.172,180.616 291.704,180.559L290.464,177.678C290.464,177.678 287.564,178.076 286.154,179.24L287.113,182.466Z" style="fill:rgb(24,13,52);fill-rule:nonzero;"/>
                </g>
                <g transform="matrix(4.16667,0,0,4.16667,-707.516,-640.965)">
                    <path d="M286.393,179.316L287.236,182.152C287.935,181.747 290.036,180.581 291.401,180.38L290.337,177.908C289.742,178.006 287.585,178.413 286.393,179.316ZM286.991,182.782L285.915,179.168L286.021,179.08C287.46,177.892 290.315,177.489 290.436,177.472L290.593,177.45L292.014,180.755L291.711,180.767C290.25,180.821 287.251,182.625 287.221,182.644L286.991,182.782Z" style="fill:rgb(24,13,52);fill-rule:nonzero;"/>
                </g>
                <g transform="matrix(4.16667,0,0,4.16667,-707.516,-640.965)">
                    <path d="M284.897,179.183L284.642,178.854C284.812,178.723 286.327,177.565 287.123,177.461L287.177,177.873C286.596,177.949 285.334,178.844 284.897,179.183Z" style="fill:rgb(24,13,52);fill-rule:nonzero;"/>
                </g>
                <g transform="matrix(4.16667,0,0,4.16667,-707.516,-640.965)">
                    <path d="M293.181,179.507L292.774,179.428L293.173,177.38L293.581,177.459L293.181,179.507Z" style="fill:rgb(24,13,52);fill-rule:nonzero;"/>
                </g>
                <g transform="matrix(4.16667,0,0,4.16667,-707.516,-640.965)">
                    <path d="M292.266,179.058L291.859,178.979L292.258,176.931L292.666,177.011L292.266,179.058Z" style="fill:rgb(24,13,52);fill-rule:nonzero;"/>
                </g>
                <g transform="matrix(4.16667,0,0,4.16667,-707.516,-640.965)">
                    <path d="M291.195,178.741L290.787,178.662L291.186,176.614L291.594,176.694L291.195,178.741Z" style="fill:rgb(24,13,52);fill-rule:nonzero;"/>
                </g>
                <g transform="matrix(4.16667,0,0,4.16667,-707.516,-640.965)">
                    <path d="M287.653,181.259L287.054,179.045L287.363,178.961L287.961,181.175L287.653,181.259Z" style="fill:rgb(252,175,22);fill-rule:nonzero;"/>
                </g>
                <g transform="matrix(4.16667,0,0,4.16667,-707.516,-640.965)">
                    <path d="M288.685,180.851L288.086,178.637L288.395,178.553L288.993,180.767L288.685,180.851Z" style="fill:rgb(252,175,22);fill-rule:nonzero;"/>
                </g>
            </g>
        </g>
    </g>
</svg>
