<?xml version="1.0" encoding="UTF-8" standalone="no"?>
<!DOCTYPE svg PUBLIC "-//W3C//DTD SVG 1.1//EN" "http://www.w3.org/Graphics/SVG/1.1/DTD/svg11.dtd">
<svg width="100%" height="100%" viewBox="0 0 108 173" version="1.1" xmlns="http://www.w3.org/2000/svg" xmlns:xlink="http://www.w3.org/1999/xlink" xml:space="preserve" xmlns:serif="http://www.serif.com/" style="fill-rule:evenodd;clip-rule:evenodd;stroke-linejoin:round;stroke-miterlimit:2;">
    <g transform="matrix(1,0,0,1,-2386.03,-36.8269)">
        <g transform="matrix(1,0,0,1,1716,-20.0001)">
            <g>
                <circle cx="720.933" cy="169.616" r="50.907" style="fill:white;"/>
            </g>
        </g>
        <g transform="matrix(0.904394,0,0,0.904395,429.159,-324.983)">
            <g id="chr_sitting">
                <g transform="matrix(4.16667,0,0,4.16667,622.917,-474.602)">
                    <path d="M388.958,247.058C388.958,247.058 388.555,246.856 388.317,247.661C388.08,248.466 387.86,248.832 387.951,249.198C388.043,249.564 389.397,249.601 389.397,249.601C389.397,249.601 391.428,250.662 392.965,250.662C394.502,250.662 393.606,249.674 393.551,249.619C393.496,249.564 391.529,248.774 391.313,248.064C391.097,247.354 391.067,247.429 391.067,247.429L388.958,247.058Z" style="fill:white;fill-rule:nonzero;"/>
                </g>
                <g transform="matrix(4.16667,0,0,4.16667,622.917,-474.602)">
                    <path d="M388.845,247.243C388.83,247.243 388.811,247.246 388.788,247.257C388.741,247.281 388.619,247.373 388.516,247.72C388.444,247.965 388.374,248.17 388.312,248.347C388.182,248.724 388.104,248.952 388.153,249.148C388.223,249.257 388.82,249.378 389.402,249.393L389.451,249.395L389.493,249.417C389.513,249.427 391.498,250.455 392.965,250.455C393.411,250.455 393.608,250.364 393.644,250.28C393.693,250.161 393.532,249.905 393.42,249.783C393.391,249.768 393.338,249.744 393.269,249.711C392.361,249.285 391.296,248.719 391.115,248.124C391.026,247.832 390.972,247.688 390.944,247.619L388.871,247.246C388.867,247.245 388.858,247.243 388.845,247.243ZM392.965,250.87C391.501,250.87 389.656,249.965 389.344,249.807C388.774,249.788 387.86,249.688 387.75,249.249C387.671,248.933 387.77,248.646 387.92,248.212C387.979,248.04 388.048,247.841 388.118,247.603C388.233,247.216 388.405,246.971 388.631,246.873C388.777,246.809 388.923,246.822 389.016,246.857L391.08,247.22C391.239,247.227 391.298,247.3 391.512,248.004C391.612,248.331 392.262,248.78 393.446,249.335C393.629,249.421 393.662,249.437 393.697,249.472C393.702,249.478 394.211,249.994 394.027,250.438C393.907,250.729 393.56,250.87 392.965,250.87Z" style="fill:rgb(24,13,52);fill-rule:nonzero;"/>
                </g>
                <g transform="matrix(4.16667,0,0,4.16667,622.917,-474.602)">
                    <path d="M390.332,249.297C389.753,248.84 389.085,248.509 388.371,248.325L388.123,248.261C387.979,248.676 387.887,248.939 387.952,249.198C388.043,249.564 389.397,249.601 389.397,249.601C389.397,249.601 391.428,250.662 392.965,250.662C393.931,250.662 393.936,250.272 393.792,249.968C391.982,250.8 390.332,249.297 390.332,249.297Z" style="fill:rgb(24,13,52);fill-rule:nonzero;"/>
                </g>
                <g transform="matrix(4.16667,0,0,4.16667,622.917,-474.602)">
                    <path d="M390.62,248.664C390.548,248.664 390.507,248.657 390.496,248.655L390.575,248.247C390.578,248.248 390.821,248.281 391.335,248.069L391.494,248.452C391.058,248.632 390.771,248.664 390.62,248.664Z" style="fill:rgb(24,13,52);fill-rule:nonzero;"/>
                </g>
                <g transform="matrix(4.16667,0,0,4.16667,622.917,-474.602)">
                    <path d="M392.687,244.6C392.687,244.6 394.271,245.397 395.256,246.269C396.241,247.141 397.039,245.251 395.442,243.787C393.845,242.323 392.807,242.164 392.807,242.164L392.195,242.989L392.687,244.6Z" style="fill:white;fill-rule:nonzero;"/>
                </g>
                <g transform="matrix(4.16667,0,0,4.16667,622.917,-474.602)">
                    <path d="M392.86,244.455C393.199,244.631 394.515,245.336 395.394,246.114C395.553,246.255 395.782,246.38 395.965,246.176C396.253,245.856 396.278,244.835 395.302,243.94C394.083,242.822 393.198,242.487 392.892,242.398L392.425,243.028L392.86,244.455ZM395.742,246.697C395.554,246.697 395.341,246.621 395.118,246.425C394.166,245.581 392.61,244.793 392.594,244.785L392.515,244.745L391.966,242.949L392.715,241.939L392.839,241.958C392.884,241.965 393.958,242.145 395.583,243.634C396.737,244.693 396.726,245.952 396.273,246.454C396.149,246.592 395.963,246.697 395.742,246.697Z" style="fill:rgb(24,13,52);fill-rule:nonzero;"/>
                </g>
                <g transform="matrix(4.16667,0,0,4.16667,622.917,-474.602)">
                    <path d="M393.557,243.569C393.557,243.569 395.622,244.374 396.223,245.483C396.098,245.086 395.876,244.185 395.442,243.787C393.845,242.323 393.009,242.216 393.009,242.216L392.432,243.103L393.557,243.569Z" style="fill:rgb(24,13,52);fill-rule:nonzero;"/>
                </g>
                <g transform="matrix(4.16667,0,0,4.16667,622.917,-474.602)">
                    <path d="M393.672,245.103L393.314,244.893L393.711,244.215L394.069,244.425L393.672,245.103Z" style="fill:rgb(24,13,52);fill-rule:nonzero;"/>
                </g>
                <g transform="matrix(4.16667,0,0,4.16667,622.917,-474.602)">
                    <path d="M394.369,245.572L394.011,245.362L394.286,244.893L394.644,245.103L394.369,245.572Z" style="fill:rgb(24,13,52);fill-rule:nonzero;"/>
                </g>
                <g transform="matrix(4.16667,0,0,4.16667,622.917,-474.602)">
                    <path d="M389.203,246.269L388.923,246.907C388.831,247.115 388.933,247.359 389.147,247.435C389.502,247.561 390.064,247.711 390.678,247.678C390.832,247.67 390.969,247.576 391.028,247.433L391.351,246.643L389.203,246.269Z" style="fill:rgb(24,13,52);fill-rule:nonzero;"/>
                </g>
                <g transform="matrix(4.16667,0,0,4.16667,622.917,-474.602)">
                    <path d="M389.328,246.501L389.113,246.991C389.092,247.039 389.091,247.093 389.112,247.141C389.132,247.188 389.169,247.223 389.217,247.24C389.561,247.362 390.09,247.5 390.667,247.471C390.742,247.467 390.808,247.421 390.836,247.354L391.061,246.803L389.328,246.501ZM390.504,247.89C389.933,247.89 389.421,247.753 389.077,247.631C388.923,247.575 388.796,247.457 388.731,247.306C388.665,247.153 388.665,246.977 388.733,246.824L389.078,246.037L391.641,246.483L391.22,247.512C391.132,247.726 390.923,247.873 390.689,247.885C390.627,247.889 390.565,247.89 390.504,247.89Z" style="fill:rgb(24,13,52);fill-rule:nonzero;"/>
                </g>
                <g transform="matrix(4.16667,0,0,4.16667,622.917,-474.602)">
                    <path d="M390.291,242.581C389.348,242.73 387.957,242.922 386.966,242.938C385.371,242.963 384.716,242.384 383.118,242.896C383.077,242.909 383.036,242.923 382.994,242.938C381.304,243.522 385.093,241.239 386.079,240.46C386.899,239.813 391.262,238.642 392.605,238.199C392.681,238.174 392.733,238.272 392.671,238.321C392.122,238.752 391.118,239.706 390.73,241.146C390.311,242.704 389.485,244.873 389.127,245.791C389.027,246.046 389.159,246.33 389.417,246.421C389.855,246.577 390.551,246.755 391.267,246.663C391.422,246.643 391.558,246.556 391.635,246.421C392.194,245.433 394.735,240.991 396.208,239.173C397.869,237.122 396.779,235.377 395.455,234.753C394.47,234.29 390.132,234.779 387.533,234.911C386.638,234.956 385.949,234.959 385.675,234.866C384.602,234.502 379.437,235.922 379.437,235.922L377.653,236.813L377.646,239.121L377.149,242.976C377.049,243.753 377.139,244.541 377.411,245.275C377.685,246.015 378.329,246.556 379.105,246.698C379.31,246.736 379.516,246.745 379.723,246.725C380.827,246.618 384.575,246.234 386.291,245.794C387.269,245.543 388.436,245.274 389.38,245.062L390.291,242.581Z" style="fill:rgb(252,175,22);fill-rule:nonzero;"/>
                </g>
                <g transform="matrix(4.16667,0,0,4.16667,622.917,-474.602)">
                    <path d="M384.385,242.477C384.778,242.477 385.129,242.535 385.49,242.594C385.927,242.665 386.381,242.737 386.962,242.73C387.891,242.715 389.178,242.544 390.136,242.395C390.285,241.941 390.421,241.495 390.529,241.092C390.832,239.968 391.493,239.131 392.048,238.591C391.805,238.665 391.531,238.747 391.237,238.834C389.468,239.362 386.796,240.159 386.208,240.623C385.889,240.875 385.298,241.27 384.674,241.689C384.233,241.984 383.698,242.342 383.304,242.625C383.711,242.516 384.063,242.477 384.385,242.477ZM377.86,236.941L377.853,239.122L377.355,243.003C377.259,243.743 377.346,244.503 377.605,245.203C377.853,245.871 378.442,246.365 379.143,246.494C379.328,246.528 379.517,246.536 379.703,246.518C380.807,246.411 384.54,246.028 386.239,245.593C387.037,245.388 388.051,245.147 389.255,244.878C389.474,244.297 389.74,243.57 389.989,242.838C389.045,242.98 387.854,243.131 386.969,243.145C386.345,243.155 385.856,243.075 385.423,243.004C384.728,242.89 384.127,242.79 383.181,243.094L383.061,243.134C382.795,243.226 382.493,243.33 382.382,243.106C382.259,242.859 382.389,242.719 384.443,241.344C385.061,240.93 385.644,240.539 385.951,240.297C386.601,239.783 389.212,239.005 391.118,238.437C391.708,238.261 392.214,238.11 392.541,238.002C392.668,237.959 392.809,238.015 392.872,238.134C392.936,238.253 392.906,238.4 392.799,238.484C392.26,238.908 391.301,239.824 390.931,241.2C390.506,242.776 389.663,244.988 389.32,245.866C389.293,245.936 389.295,246.012 389.326,246.08C389.357,246.148 389.414,246.2 389.486,246.226C389.917,246.379 390.572,246.542 391.241,246.457C391.334,246.445 391.411,246.395 391.455,246.319C391.96,245.427 394.554,240.886 396.047,239.043C396.707,238.227 396.964,237.391 396.788,236.624C396.625,235.912 396.094,235.284 395.367,234.941C394.673,234.615 391.92,234.815 389.708,234.975C388.925,235.032 388.185,235.086 387.543,235.118C386.463,235.173 385.884,235.156 385.608,235.063C384.783,234.782 380.947,235.723 379.511,236.116L377.86,236.941ZM379.509,246.942C379.362,246.942 379.214,246.929 379.068,246.902C378.224,246.748 377.514,246.151 377.216,245.347C376.933,244.585 376.839,243.756 376.943,242.95L377.44,239.095L377.446,236.684L379.382,235.721C379.917,235.575 384.639,234.297 385.742,234.669C386.061,234.778 387.161,234.722 387.522,234.704C388.16,234.671 388.897,234.618 389.678,234.561C392.172,234.38 394.752,234.193 395.543,234.565C396.385,234.962 397.002,235.696 397.193,236.531C397.336,237.156 397.309,238.144 396.369,239.304C394.897,241.121 392.318,245.637 391.816,246.523C391.708,246.714 391.518,246.84 391.294,246.869C390.545,246.966 389.822,246.785 389.347,246.617C389.169,246.554 389.027,246.424 388.948,246.253C388.87,246.082 388.865,245.891 388.933,245.715C388.975,245.609 389.023,245.484 389.077,245.343C387.995,245.588 387.076,245.806 386.342,245.995C384.614,246.438 380.854,246.823 379.743,246.931C379.665,246.939 379.587,246.942 379.509,246.942Z" style="fill:rgb(24,13,52);fill-rule:nonzero;"/>
                </g>
                <g transform="matrix(4.16667,0,0,4.16667,622.917,-474.602)">
                    <path d="M392.809,238.398L392.566,238.061C392.587,238.046 393.097,237.681 393.799,237.704L393.786,238.119C393.22,238.096 392.813,238.395 392.809,238.398Z" style="fill:rgb(24,13,52);fill-rule:nonzero;"/>
                </g>
                <g transform="matrix(4.16667,0,0,4.16667,622.917,-474.602)">
                    <path d="M388.018,245.502L387.639,245.333C388.042,244.427 387.545,243.799 387.524,243.773L387.844,243.508C387.872,243.542 388.529,244.353 388.018,245.502Z" style="fill:rgb(24,13,52);fill-rule:nonzero;"/>
                </g>
                <g transform="matrix(4.16667,0,0,4.16667,622.917,-474.602)">
                    <path d="M391.983,244.527C391.076,244.527 390.658,244.176 390.635,244.157L390.905,243.842C390.911,243.846 391.503,244.319 392.874,244.002L392.968,244.406C392.591,244.494 392.264,244.527 391.983,244.527Z" style="fill:rgb(24,13,52);fill-rule:nonzero;"/>
                </g>
                <g transform="matrix(4.16667,0,0,4.16667,622.917,-474.602)">
                    <path d="M379.709,246.124C378.854,246.124 378.399,245.614 378.27,245.309L378.653,245.147L378.461,245.228L378.652,245.146C378.665,245.174 378.974,245.844 380.007,245.685L380.74,245.578L380.8,245.989L380.068,246.095C379.941,246.115 379.822,246.124 379.709,246.124Z" style="fill:rgb(24,13,52);fill-rule:nonzero;"/>
                </g>
                <g transform="matrix(4.16667,0,0,4.16667,622.917,-474.602)">
                    <path d="M389.947,235.816C389.947,235.816 391.826,235.339 393.74,235.496L389.947,235.816Z" style="fill:white;fill-rule:nonzero;"/>
                </g>
                <g transform="matrix(4.16667,0,0,4.16667,622.917,-474.602)">
                    <path d="M389.998,236.017L389.896,235.614C389.974,235.594 391.83,235.131 393.756,235.289L393.723,235.703C391.866,235.55 390.016,236.012 389.998,236.017Z" style="fill:rgb(24,13,52);fill-rule:nonzero;"/>
                </g>
                <g transform="matrix(4.16667,0,0,4.16667,622.917,-474.602)">
                    <path d="M383.927,242.181L383.668,241.857C383.686,241.843 385.463,240.412 386.181,239.279L386.531,239.501C385.777,240.693 384.002,242.121 383.927,242.181Z" style="fill:rgb(24,13,52);fill-rule:nonzero;"/>
                </g>
                <g transform="matrix(4.16667,0,0,4.16667,622.917,-474.602)">
                    <path d="M385.375,239.881L385.1,239.57C385.106,239.565 385.716,239.016 386.195,237.983L386.572,238.157C386.054,239.275 385.402,239.857 385.375,239.881Z" style="fill:rgb(24,13,52);fill-rule:nonzero;"/>
                </g>
                <g transform="matrix(4.16667,0,0,4.16667,622.917,-474.602)">
                    <path d="M386.903,228.123C386.903,228.123 389.562,229.843 391.145,230.799C391.145,230.799 391.141,231.534 392.322,232.742C393.2,233.64 394.284,234.514 394.284,234.514C394.284,234.514 393.984,236.267 394.458,236.62C394.787,236.865 394.831,236.412 394.828,236.113C394.827,236.059 394.899,236.042 394.924,236.09L395.19,236.804C395.384,237.179 395.79,237.751 396.191,237.62L396.511,237.407C396.511,237.407 397.266,235.733 395.882,234.008C395.882,234.008 393.694,231.175 393.226,230.441C392.759,229.706 388.922,225.902 388.922,225.902L386.079,226.09L386.903,228.123Z" style="fill:rgb(24,13,52);fill-rule:nonzero;"/>
                </g>
                <g transform="matrix(4.16667,0,0,4.16667,622.917,-474.602)">
                    <path d="M392.284,231.033C391.939,230.87 391.369,230.925 391.363,230.925L391.339,230.687C391.365,230.684 391.982,230.625 392.386,230.817L392.284,231.033Z" style="fill:rgb(252,175,22);fill-rule:nonzero;"/>
                </g>
                <g transform="matrix(4.16667,0,0,4.16667,622.917,-474.602)">
                    <path d="M395.843,234.417C395.601,233.989 395.092,233.493 395.087,233.488L395.254,233.317C395.276,233.338 395.792,233.841 396.052,234.299L395.843,234.417Z" style="fill:rgb(252,175,22);fill-rule:nonzero;"/>
                </g>
                <g transform="matrix(4.16667,0,0,4.16667,622.917,-474.602)">
                    <rect x="394.722" y="235.114" width="0.24" height="0.619" style="fill:rgb(252,175,22);"/>
                </g>
                <g transform="matrix(4.16667,0,0,4.16667,622.917,-474.602)">
                    <path d="M379.553,229.228C379.579,230.213 379.281,231.118 379.281,231.118C378.04,231.979 376.738,231.046 376.329,230.702C376.248,230.634 376.21,230.528 376.232,230.424C376.346,229.897 376.545,228.187 377.303,226.773C377.826,225.799 378.801,224.775 379.597,224.369C380.597,223.858 380.945,223.481 381.746,223.379L383.162,223.2C383.162,223.2 385.262,223.064 386.593,223.754C387.551,224.25 388.756,225.723 389.026,226.073C389.061,226.118 389.042,226.182 388.988,226.201C388.61,226.333 387.37,226.87 387.252,228.243C387.247,228.305 387.183,228.343 387.13,228.311C386.915,228.182 386.439,227.874 386.078,227.461C386.043,227.42 385.977,227.445 385.981,227.499C386.053,228.369 386.372,232.426 386.395,233.959C386.422,235.689 386.559,236.281 385.388,237.293C384.579,237.991 381.632,239.343 380.038,239.217C379.188,239.15 378.799,238.641 378.182,238.171C376.859,237.165 378.035,232.954 378.035,232.954L378.169,231.624L379.553,229.228Z" style="fill:white;fill-rule:nonzero;"/>
                </g>
                <g transform="matrix(4.16667,0,0,4.16667,622.917,-474.602)">
                    <path d="M378.373,231.671L378.235,233.01C377.919,234.144 377.315,237.251 378.308,238.006C378.445,238.111 378.572,238.217 378.695,238.321C379.121,238.68 379.457,238.963 380.055,239.01C381.55,239.129 384.454,237.825 385.253,237.136C386.24,236.283 386.228,235.776 386.197,234.421C386.194,234.277 386.19,234.125 386.188,233.962C386.166,232.525 385.875,228.732 385.775,227.516C385.765,227.403 385.829,227.298 385.933,227.254C386.038,227.21 386.159,227.238 386.234,227.324C386.502,227.63 386.843,227.879 387.07,228.028C387.267,226.831 388.263,226.273 388.757,226.067C388.252,225.435 387.258,224.332 386.497,223.938C385.232,223.283 383.196,223.406 383.176,223.407L381.773,223.585C381.268,223.649 380.959,223.831 380.492,224.107C380.268,224.239 380.014,224.389 379.691,224.554C378.936,224.939 377.988,225.935 377.486,226.871C376.872,228.017 376.633,229.371 376.504,230.099C376.477,230.251 376.455,230.377 376.435,230.468C376.429,230.495 376.439,230.523 376.463,230.543C376.901,230.912 378.023,231.682 379.104,230.987C379.169,230.765 379.366,230.02 379.345,229.234L379.76,229.223C379.788,230.232 379.491,231.145 379.478,231.183L379.456,231.249L379.399,231.289C379.055,231.528 378.707,231.641 378.373,231.671ZM380.257,239.433C380.176,239.433 380.098,239.43 380.022,239.424C379.291,239.367 378.872,239.013 378.427,238.639C378.31,238.539 378.188,238.437 378.056,238.336C376.668,237.281 377.736,233.259 377.83,232.916L377.956,231.669C377.138,231.586 376.456,231.08 376.196,230.861C376.054,230.743 375.991,230.558 376.029,230.38C376.048,230.293 376.069,230.173 376.095,230.026C376.228,229.276 376.475,227.879 377.121,226.675C377.666,225.657 378.668,224.61 379.502,224.184C379.814,224.025 380.062,223.878 380.281,223.749C380.774,223.458 381.13,223.248 381.72,223.173L383.136,222.994C383.237,222.987 385.322,222.862 386.688,223.57C387.791,224.141 389.134,225.873 389.19,225.947C389.247,226.021 389.266,226.117 389.239,226.206C389.213,226.294 389.145,226.366 389.057,226.396C388.709,226.518 387.566,227.013 387.459,228.261C387.45,228.363 387.391,228.452 387.301,228.498C387.213,228.543 387.109,228.54 387.024,228.489C386.836,228.377 386.523,228.174 386.222,227.901C386.343,229.412 386.583,232.647 386.603,233.956C386.606,234.117 386.609,234.269 386.612,234.412C386.645,235.825 386.659,236.469 385.524,237.45C384.71,238.152 381.96,239.433 380.257,239.433Z" style="fill:rgb(24,13,52);fill-rule:nonzero;"/>
                </g>
                <g transform="matrix(4.16667,0,0,4.16667,622.917,-474.602)">
                    <path d="M385.85,227.578C385.591,227.259 385.439,226.725 385.433,226.703L385.833,226.59C385.834,226.595 385.968,227.064 386.173,227.316L385.85,227.578Z" style="fill:rgb(24,13,52);fill-rule:nonzero;"/>
                </g>
                <g transform="matrix(4.16667,0,0,4.16667,622.917,-474.602)">
                    <path d="M380.162,225.458C379.954,225.12 379.851,224.873 379.847,224.863L380.23,224.704C380.231,224.706 380.326,224.933 380.516,225.241L380.162,225.458ZM384.511,225.623L384.511,225.618C384.511,225.469 384.496,225.307 384.468,225.137L384.877,225.068C384.909,225.261 384.926,225.446 384.926,225.618L384.511,225.623ZM380.76,226.256C380.615,226.097 380.474,225.922 380.344,225.736L380.684,225.497C380.804,225.669 380.933,225.83 381.066,225.976L380.76,226.256ZM384.669,226.647L384.313,226.434C384.403,226.285 384.462,226.109 384.49,225.912L384.901,225.97C384.865,226.223 384.787,226.45 384.669,226.647ZM381.523,226.915C381.342,226.796 381.164,226.654 380.995,226.495L381.28,226.193C381.432,226.336 381.59,226.462 381.751,226.568L381.523,226.915ZM383.837,227.33L383.69,226.941C383.869,226.873 384.024,226.775 384.148,226.647L384.445,226.938C384.278,227.109 384.073,227.24 383.837,227.33ZM382.452,227.336C382.235,227.279 382.021,227.195 381.815,227.088L382.008,226.72C382.186,226.813 382.371,226.885 382.558,226.935L382.452,227.336ZM383.211,227.435C383.07,227.435 382.927,227.425 382.788,227.405L382.847,226.994C382.968,227.011 383.085,227.021 383.214,227.02C383.283,227.02 383.352,227.017 383.422,227.012L383.482,227.423C383.371,227.432 383.293,227.436 383.211,227.435Z" style="fill:rgb(24,13,52);fill-rule:nonzero;"/>
                </g>
                <g transform="matrix(4.16667,0,0,4.16667,622.917,-474.602)">
                    <path d="M384.261,236.201C381.507,236.201 380.919,234.082 380.913,234.061L381.314,233.955C381.335,234.029 381.837,235.786 384.261,235.786L384.264,235.786L384.264,236.201L384.261,236.201Z" style="fill:rgb(24,13,52);fill-rule:nonzero;"/>
                </g>
                <g transform="matrix(4.16667,0,0,4.16667,622.917,-474.602)">
                    <path d="M382.626,234.96C380.521,233.247 381.003,231.449 381.025,231.373L381.424,231.487L381.225,231.43L381.425,231.486C381.406,231.552 381.005,233.106 382.888,234.638L382.626,234.96Z" style="fill:rgb(24,13,52);fill-rule:nonzero;"/>
                </g>
                <g transform="matrix(4.16667,0,0,4.16667,622.917,-474.602)">
                    <path d="M380.631,235.001C380.042,234.706 379.83,233.988 379.821,233.958L380.22,233.842C380.222,233.848 380.393,234.417 380.817,234.63L380.631,235.001Z" style="fill:rgb(24,13,52);fill-rule:nonzero;"/>
                </g>
                <g transform="matrix(4.16667,0,0,4.16667,622.917,-474.602)">
                    <path d="M384.724,230.756C384.674,231.165 384.401,231.469 384.112,231.434C383.824,231.4 383.63,231.04 383.679,230.63C383.728,230.22 384.002,229.916 384.291,229.951C384.579,229.986 384.773,230.346 384.724,230.756Z" style="fill:white;fill-rule:nonzero;"/>
                </g>
                <g transform="matrix(4.16667,0,0,4.16667,622.917,-474.602)">
                    <path d="M384.247,230.156C384.101,230.156 383.922,230.352 383.885,230.655C383.867,230.808 383.891,230.961 383.952,231.074C383.98,231.127 384.042,231.217 384.137,231.228C384.235,231.242 384.313,231.167 384.353,231.123C384.439,231.027 384.499,230.885 384.517,230.731C384.536,230.577 384.512,230.424 384.451,230.311C384.423,230.259 384.361,230.169 384.266,230.157C384.26,230.157 384.253,230.156 384.247,230.156ZM384.156,231.645C384.133,231.645 384.11,231.643 384.087,231.641C383.882,231.616 383.699,231.481 383.586,231.271C383.484,231.082 383.444,230.845 383.473,230.605C383.537,230.074 383.903,229.697 384.316,229.745C384.521,229.77 384.704,229.904 384.817,230.114C384.919,230.304 384.958,230.54 384.93,230.781C384.901,231.021 384.806,231.241 384.662,231.401C384.52,231.558 384.339,231.645 384.156,231.645Z" style="fill:rgb(24,13,52);fill-rule:nonzero;"/>
                </g>
                <g transform="matrix(4.16667,0,0,4.16667,622.917,-474.602)">
                    <path d="M385.007,229.799C384.958,230.209 384.684,230.513 384.396,230.478C384.107,230.443 383.913,230.083 383.963,229.673C384.012,229.264 384.286,228.96 384.574,228.994C384.863,229.029 385.057,229.389 385.007,229.799Z" style="fill:rgb(252,175,22);fill-rule:nonzero;"/>
                </g>
                <g transform="matrix(4.16667,0,0,4.16667,622.917,-474.602)">
                    <path d="M384.531,229.199C384.384,229.199 384.206,229.396 384.169,229.698C384.131,230.014 384.271,230.254 384.421,230.272C384.515,230.285 384.597,230.21 384.637,230.166C384.723,230.071 384.783,229.928 384.801,229.774C384.839,229.458 384.699,229.218 384.549,229.201C384.543,229.2 384.537,229.199 384.531,229.199ZM384.44,230.688C384.417,230.688 384.394,230.687 384.371,230.684C383.963,230.635 383.693,230.18 383.757,229.648C383.821,229.117 384.198,228.741 384.599,228.788C385.007,228.837 385.278,229.292 385.214,229.824C385.185,230.064 385.089,230.284 384.946,230.444C384.804,230.601 384.623,230.688 384.44,230.688Z" style="fill:rgb(24,13,52);fill-rule:nonzero;"/>
                </g>
                <g transform="matrix(4.16667,0,0,4.16667,622.917,-474.602)">
                    <path d="M383.458,224.062C383.458,224.062 384.699,226.354 383,226.254C381.508,226.166 380.597,224.102 380.597,224.102C381.19,222.368 380.773,220.568 380.773,220.568L380.948,219.975L385.009,218L385.295,219.932C385.569,221.496 385.263,223.143 385.081,223.907C385.014,224.187 384.747,224.366 384.461,224.331C383.285,224.189 382.112,223.334 382.112,223.334L383.458,224.062Z" style="fill:rgb(24,13,52);fill-rule:nonzero;"/>
                </g>
                <g transform="matrix(4.16667,0,0,4.16667,622.917,-474.602)">
                    <path d="M380.82,224.089C380.992,224.439 381.813,225.976 383.013,226.046C383.315,226.063 383.514,225.998 383.608,225.851C383.849,225.472 383.494,224.592 383.31,224.227C382.578,223.927 382.023,223.526 381.989,223.502L382.234,223.166C382.245,223.174 383.38,223.992 384.486,224.125C384.668,224.147 384.837,224.033 384.879,223.859C385.071,223.051 385.354,221.472 385.09,219.967L384.845,218.31L381.121,220.122L380.987,220.576C381.053,220.895 381.338,222.494 380.82,224.089ZM383.106,226.464C383.068,226.464 383.029,226.463 382.988,226.461C381.387,226.367 380.446,224.275 380.407,224.186L380.374,224.112L380.401,224.035C380.968,222.376 380.575,220.632 380.571,220.615L380.558,220.562L380.775,219.829L385.173,217.689L385.5,219.901C385.776,221.473 385.482,223.116 385.283,223.955C385.192,224.335 384.83,224.584 384.436,224.538C384.239,224.514 384.042,224.471 383.851,224.417C384.043,224.891 384.249,225.618 383.958,226.074C383.793,226.333 383.507,226.464 383.106,226.464Z" style="fill:rgb(24,13,52);fill-rule:nonzero;"/>
                </g>
                <g transform="matrix(4.16667,0,0,4.16667,622.917,-474.602)">
                    <path d="M379.475,220.752L379.596,221.171C379.677,221.453 379.826,221.71 380.03,221.919L380.277,222.172C380.487,222.387 380.748,222.545 381.036,222.632L381.453,222.456C381.453,222.456 380.823,221.746 380.864,221.146C380.901,220.589 381.554,220.492 381.858,221.009C381.904,221.087 381.974,221.149 382.064,221.165L382.565,221.256C382.565,221.256 382.044,220.385 382.463,219.624C382.871,218.883 385.075,218.746 385.295,219.932L385.404,220.824C385.404,220.824 386.554,219.205 385.5,217.734C384.446,216.263 382.507,215.673 380.948,216.661C380.792,216.76 380.649,216.867 380.518,216.981C379.457,217.905 379.087,219.399 379.475,220.752Z" style="fill:rgb(252,175,22);fill-rule:nonzero;"/>
                </g>
                <g transform="matrix(4.16667,0,0,4.16667,622.917,-474.602)">
                    <path d="M379.675,220.695L379.795,221.114C379.867,221.361 379.999,221.59 380.179,221.774L380.426,222.027C380.594,222.199 380.8,222.331 381.027,222.41L381.122,222.37C380.921,222.091 380.625,221.595 380.657,221.132C380.679,220.8 380.876,220.551 381.172,220.481C381.499,220.402 381.84,220.569 382.037,220.903C382.046,220.919 382.07,220.955 382.101,220.961L382.216,220.982C382.091,220.62 381.989,220.055 382.281,219.524C382.583,218.976 383.549,218.762 384.273,218.878C384.953,218.988 385.399,219.358 385.499,219.894L385.529,220.141C385.754,219.583 385.932,218.693 385.331,217.855C384.284,216.394 382.448,215.956 381.059,216.836C380.918,216.925 380.782,217.027 380.655,217.138C379.682,217.984 379.297,219.38 379.675,220.695ZM381.048,222.852L380.976,222.83C380.656,222.734 380.362,222.557 380.129,222.317L379.882,222.064C379.654,221.831 379.486,221.542 379.396,221.228L379.276,220.809C378.854,219.341 379.288,217.777 380.382,216.825C380.526,216.7 380.678,216.586 380.837,216.485C382.414,215.486 384.492,215.97 385.669,217.613C386.796,219.186 385.585,220.927 385.573,220.945L385.263,221.382L385.089,219.957C385.001,219.486 384.499,219.335 384.207,219.288C383.574,219.186 382.827,219.393 382.645,219.724C382.288,220.373 382.739,221.142 382.743,221.149L382.978,221.542L382.027,221.369C381.884,221.343 381.76,221.252 381.679,221.114C381.554,220.903 381.38,220.858 381.267,220.885C381.153,220.912 381.081,221.012 381.071,221.16C381.042,221.579 381.449,222.138 381.609,222.318L381.8,222.535L381.048,222.852Z" style="fill:rgb(24,13,52);fill-rule:nonzero;"/>
                </g>
                <g transform="matrix(4.16667,0,0,4.16667,622.917,-474.602)">
                    <path d="M383.495,224.205C383.461,224.194 382.65,223.923 381.862,223.296L382.011,223.109C382.764,223.708 383.562,223.975 383.57,223.977L383.495,224.205Z" style="fill:rgb(252,175,22);fill-rule:nonzero;"/>
                </g>
                <g transform="matrix(4.16667,0,0,4.16667,622.917,-474.602)">
                    <path d="M382.034,222.415C381.141,222.271 381.004,221.558 380.998,221.527L381.234,221.485L381.116,221.506L381.234,221.485C381.239,221.508 381.352,222.063 382.072,222.178L382.034,222.415Z" style="fill:rgb(252,175,22);fill-rule:nonzero;"/>
                </g>
                <g transform="matrix(4.16667,0,0,4.16667,622.917,-474.602)">
                    <path d="M384.653,222.249C384.538,222.249 384.409,222.221 384.284,222.136L384.417,221.937C384.583,222.048 384.762,222.006 384.859,221.969C384.773,221.556 384.562,220.954 384.56,220.948L384.785,220.868C384.796,220.898 385.038,221.588 385.112,222.016L385.126,222.096L385.057,222.139C385.046,222.145 384.874,222.249 384.653,222.249Z" style="fill:rgb(252,175,22);fill-rule:nonzero;"/>
                </g>
                <g transform="matrix(4.16667,0,0,4.16667,622.917,-474.602)">
                    <path d="M383.269,221.423L383.054,221.319C383.159,221.103 383.502,220.736 384.057,220.888L383.993,221.119C383.492,220.981 383.278,221.405 383.269,221.423Z" style="fill:rgb(252,175,22);fill-rule:nonzero;"/>
                </g>
                <g transform="matrix(4.16667,0,0,4.16667,622.917,-474.602)">
                    <path d="M385.138,220.776L384.99,220.588C385,220.58 385.234,220.396 385.506,220.408L385.493,220.647C385.328,220.636 385.14,220.774 385.138,220.776Z" style="fill:rgb(252,175,22);fill-rule:nonzero;"/>
                </g>
                <g transform="matrix(4.16667,0,0,4.16667,622.917,-474.602)">
                    <path d="M384.57,224.37C384.133,224.37 383.844,224.102 383.757,223.833C383.723,223.728 383.734,223.616 383.788,223.517C383.844,223.417 383.939,223.342 384.051,223.314L384.178,223.282C384.361,223.236 384.55,223.202 384.739,223.181L385.062,223.177L385.065,223.416L384.754,223.42C384.587,223.439 384.409,223.471 384.236,223.515L384.11,223.546C384.062,223.558 384.021,223.59 383.998,223.633C383.976,223.673 383.971,223.718 383.985,223.759C384.051,223.962 384.288,224.164 384.66,224.126L384.685,224.364C384.645,224.368 384.607,224.37 384.57,224.37Z" style="fill:rgb(252,175,22);fill-rule:nonzero;"/>
                </g>
                <g transform="matrix(4.16667,0,0,4.16667,622.917,-474.602)">
                    <path d="M383.895,222.965L383.819,222.738C383.851,222.727 384.635,222.466 385.323,222.568L385.288,222.805C384.655,222.712 383.903,222.962 383.895,222.965Z" style="fill:rgb(252,175,22);fill-rule:nonzero;"/>
                </g>
                <g transform="matrix(4.16667,0,0,4.16667,622.917,-474.602)">
                    <path d="M384.239,223.685L384.216,223.446L385.074,223.365L385.097,223.604L384.239,223.685Z" style="fill:rgb(252,175,22);fill-rule:nonzero;"/>
                </g>
                <g transform="matrix(4.16667,0,0,4.16667,622.917,-474.602)">
                    <path d="M384.935,218.631C384.569,217.598 383.579,217.285 383.569,217.282L383.661,216.976C383.708,216.99 384.815,217.335 385.236,218.525L384.935,218.631Z" style="fill:rgb(24,13,52);fill-rule:nonzero;"/>
                </g>
                <g transform="matrix(4.16667,0,0,4.16667,622.917,-474.602)">
                    <path d="M379.87,220.435C379.862,220.416 379.695,219.965 379.787,219.26L380.104,219.301C380.023,219.921 380.167,220.318 380.168,220.322L379.87,220.435Z" style="fill:rgb(24,13,52);fill-rule:nonzero;"/>
                </g>
                <g transform="matrix(4.16667,0,0,4.16667,622.917,-474.602)">
                    <path d="M381.477,243.068C381.207,242.664 381.308,242.689 381.448,242.788C381.582,242.883 381.768,242.802 381.801,242.642C381.864,242.332 381.859,241.889 381.424,241.631C380.705,241.205 380.532,241.231 379.673,240.14C378.815,239.049 378.248,237.107 377.929,236.441C377.929,236.441 378.966,232.518 378.939,231.259C378.938,231.259 378.938,231.259 378.936,231.258C377.707,231.675 376.769,231.063 376.449,230.806C376.421,230.954 375.689,234.005 375.534,236.761C375.534,236.761 376.044,238.237 377.268,239.754C378.493,241.271 379.055,242.595 379.055,242.595C379.055,242.595 379.108,244.239 380.811,244.612C382.515,244.984 381.956,243.786 381.477,243.068Z" style="fill:rgb(24,13,52);fill-rule:nonzero;"/>
                </g>
                <g transform="matrix(4.16667,0,0,4.16667,622.917,-474.602)">
                    <path d="M377.284,236.504L377.124,236.325C377.128,236.322 377.499,235.988 377.711,235.738L377.894,235.893C377.672,236.156 377.299,236.49 377.284,236.504Z" style="fill:rgb(252,175,22);fill-rule:nonzero;"/>
                </g>
                <g transform="matrix(4.16667,0,0,4.16667,622.917,-474.602)">
                    <path d="M381.147,242.631C380.736,242.194 380.442,241.983 380.439,241.981L380.578,241.786C380.591,241.795 380.892,242.011 381.322,242.467L381.147,242.631Z" style="fill:rgb(252,175,22);fill-rule:nonzero;"/>
                </g>
                <g transform="matrix(4.16667,0,0,4.16667,622.917,-474.602)">
                    <path d="M378.719,241.149L378.516,241.021C378.964,240.308 379.457,240.3 379.478,240.3L379.479,240.539C379.464,240.54 379.091,240.557 378.719,241.149Z" style="fill:rgb(252,175,22);fill-rule:nonzero;"/>
                </g>
            </g>
        </g>
    </g>
</svg>
